Proyecto 2.0
…
Se agrupa la información en el formato que vendrá lso datos sobre el tipo cambio.

ocupacion1 <- ocupacion1 %>%
  group_by(Año_Mes) %>%  # Agrupar por la columna Año_Mes
  summarise(
    No_Rooms = sum(NO_ROOMS, na.rm = TRUE),  # Suma de NO_ROOMS
    CF_Occupancy = mean(CF_OCCUPANCY, na.rm = TRUE),  # Promedio de CF_OCCUPANCY
    CF_Average_Room_Rate = mean(CF_AVERAGE_ROOM_RATE, na.rm = TRUE)  # Promedio de CF_AVERAGE_ROOM_RATE
  )
print(ocupacion1)

# A tibble: 105 × 4
   Año_Mes No_Rooms CF_Occupancy CF_Average_Room_Rate
   <chr>      <dbl>        <dbl>                <dbl>
 1 2016-01     1536        0.775              150974.
 2 2016-02     1425        0.763              158638.
 3 2016-03     1272        0.646              125180.
 4 2016-04     1104        0.578              120756.
 5 2016-05      922        0.480              116351.
 6 2016-06      985        0.528              115138.
 7 2016-07     1242        0.645              111743.
 8 2016-08     1168        0.581              108321.
 9 2016-09     1237        0.627              113903.
10 2016-10     1353        0.668              121923.
# ℹ 95 more rows
…
