Proyecto2.0
…
CF_OCCUPANCY = % de ocupación sobre las habitaciones disponibles.

REAL_OCCUPANCY = % de ocupación sobre el total de habitaciones del hotel.

REVENUE = Total ingresos en pesos del día CF_AVERAGE_ROOM_RATE = Valor promedio de la habitación del día.

ocupacion %>% select("CONSIDERED_DATE",
                           "NO_PERSONS",
                           "CF_OCCUPANCY",
                           "REAL_OCCUPANCY", 
                           "REVENUE",
                           "CF_AVERAGE_ROOM_RATE")

# A tibble: 3,196 × 6
   CONSIDERED_DATE NO_PERSONS CF_OCCUPANCY REAL_OCCUPANCY   REVENUE
   <chr>                <dbl>        <dbl>          <dbl>     <dbl>
 1 16-JAN                 118         89.2           86.6 13597956.
 2 16-JAN                  94         73.4           70.1  8720565.
 3 16-JAN                  47         39.1           37.3  3854907 
 4 16-JAN                  41         35.5           32.8  2926796 
 5 16-JAN                  54         47.5           43.3  3529094 
 6 16-JAN                  64         61.4           52.2  4601446 
 7 16-JAN                  90         75             71.6  6579527 
 8 16-JAN                 118         95.3           91.0 10213015 
 9 16-JAN                 117         95.4           92.5 10716181.
10 16-JAN                  68         59.4           56.7  5097016.
# ℹ 3,186 more rows
# ℹ 1 more variable: CF_AVERAGE_ROOM_RATE <dbl>
…
